mc15_13TeV:mc15_13TeV.387150.MadGraphPythia8EvtGen_A14NNPDF23LO_TT_directTT_450_50.merge.DAOD_SUSY5.e3969_a766_a777_r6282_p2375/
mc15_13TeV:mc15_13TeV.387151.MadGraphPythia8EvtGen_A14NNPDF23LO_TT_directTT_450_150.merge.DAOD_SUSY5.e3969_a766_a777_r6282_p2375/
mc15_13TeV:mc15_13TeV.387152.MadGraphPythia8EvtGen_A14NNPDF23LO_TT_directTT_450_200.merge.DAOD_SUSY5.e3969_a766_a777_r6282_p2375/
mc15_13TeV:mc15_13TeV.387153.MadGraphPythia8EvtGen_A14NNPDF23LO_TT_directTT_450_250.merge.DAOD_SUSY5.e3969_a766_a777_r6282_p2375/
mc15_13TeV:mc15_13TeV.387154.MadGraphPythia8EvtGen_A14NNPDF23LO_TT_directTT_500_1.merge.DAOD_SUSY5.e3969_a766_a777_r6282_p2375/
mc15_13TeV:mc15_13TeV.387155.MadGraphPythia8EvtGen_A14NNPDF23LO_TT_directTT_500_50.merge.DAOD_SUSY5.e3969_a766_a777_r6282_p2375/
mc15_13TeV:mc15_13TeV.387156.MadGraphPythia8EvtGen_A14NNPDF23LO_TT_directTT_500_100.merge.DAOD_SUSY5.e3969_a766_a777_r6282_p2375/
mc15_13TeV:mc15_13TeV.387157.MadGraphPythia8EvtGen_A14NNPDF23LO_TT_directTT_500_200.merge.DAOD_SUSY5.e3969_a766_a777_r6282_p2375/
mc15_13TeV:mc15_13TeV.387158.MadGraphPythia8EvtGen_A14NNPDF23LO_TT_directTT_500_250.merge.DAOD_SUSY5.e3969_a766_a777_r6282_p2375/
mc15_13TeV:mc15_13TeV.387159.MadGraphPythia8EvtGen_A14NNPDF23LO_TT_directTT_500_300.merge.DAOD_SUSY5.e3969_a766_a777_r6282_p2375/
mc15_13TeV:mc15_13TeV.387160.MadGraphPythia8EvtGen_A14NNPDF23LO_TT_directTT_550_250.merge.DAOD_SUSY5.e3969_a766_a777_r6282_p2375/
mc15_13TeV:mc15_13TeV.387161.MadGraphPythia8EvtGen_A14NNPDF23LO_TT_directTT_550_300.merge.DAOD_SUSY5.e3969_a766_a777_r6282_p2375/
mc15_13TeV:mc15_13TeV.387162.MadGraphPythia8EvtGen_A14NNPDF23LO_TT_directTT_550_350.merge.DAOD_SUSY5.e3969_a766_a777_r6282_p2375/
mc15_13TeV:mc15_13TeV.387163.MadGraphPythia8EvtGen_A14NNPDF23LO_TT_directTT_600_1.merge.DAOD_SUSY5.e3969_a766_a777_r6282_p2375/
mc15_13TeV:mc15_13TeV.387164.MadGraphPythia8EvtGen_A14NNPDF23LO_TT_directTT_600_50.merge.DAOD_SUSY5.e3969_a766_a777_r6282_p2375/
mc15_13TeV:mc15_13TeV.387165.MadGraphPythia8EvtGen_A14NNPDF23LO_TT_directTT_600_100.merge.DAOD_SUSY5.e3969_a766_a777_r6282_p2375/
mc15_13TeV:mc15_13TeV.387166.MadGraphPythia8EvtGen_A14NNPDF23LO_TT_directTT_600_200.merge.DAOD_SUSY5.e3969_a766_a777_r6282_p2375/
mc15_13TeV:mc15_13TeV.387167.MadGraphPythia8EvtGen_A14NNPDF23LO_TT_directTT_600_250.merge.DAOD_SUSY5.e3969_a766_a777_r6282_p2375/
mc15_13TeV:mc15_13TeV.387168.MadGraphPythia8EvtGen_A14NNPDF23LO_TT_directTT_600_300.merge.DAOD_SUSY5.e3969_a766_a777_r6282_p2375/
mc15_13TeV:mc15_13TeV.387169.MadGraphPythia8EvtGen_A14NNPDF23LO_TT_directTT_600_350.merge.DAOD_SUSY5.e3969_a766_a777_r6282_p2375/
mc15_13TeV:mc15_13TeV.387170.MadGraphPythia8EvtGen_A14NNPDF23LO_TT_directTT_600_400.merge.DAOD_SUSY5.e3969_a766_a777_r6282_p2375/
mc15_13TeV:mc15_13TeV.387171.MadGraphPythia8EvtGen_A14NNPDF23LO_TT_directTT_650_1.merge.DAOD_SUSY5.e3969_a766_a777_r6282_p2375/
mc15_13TeV:mc15_13TeV.387172.MadGraphPythia8EvtGen_A14NNPDF23LO_TT_directTT_650_50.merge.DAOD_SUSY5.e3969_a766_a777_r6282_p2375/
mc15_13TeV:mc15_13TeV.387173.MadGraphPythia8EvtGen_A14NNPDF23LO_TT_directTT_650_100.merge.DAOD_SUSY5.e3969_a766_a777_r6282_p2375/
mc15_13TeV:mc15_13TeV.387174.MadGraphPythia8EvtGen_A14NNPDF23LO_TT_directTT_650_200.merge.DAOD_SUSY5.e3969_a766_a777_r6282_p2375/
mc15_13TeV:mc15_13TeV.387175.MadGraphPythia8EvtGen_A14NNPDF23LO_TT_directTT_650_250.merge.DAOD_SUSY5.e3969_a766_a777_r6282_p2375/
mc15_13TeV:mc15_13TeV.387176.MadGraphPythia8EvtGen_A14NNPDF23LO_TT_directTT_650_300.merge.DAOD_SUSY5.e3969_a766_a777_r6282_p2375/
mc15_13TeV:mc15_13TeV.387177.MadGraphPythia8EvtGen_A14NNPDF23LO_TT_directTT_650_350.merge.DAOD_SUSY5.e3969_a766_a777_r6282_p2375/
mc15_13TeV:mc15_13TeV.387178.MadGraphPythia8EvtGen_A14NNPDF23LO_TT_directTT_650_400.merge.DAOD_SUSY5.e3969_a766_a777_r6282_p2375/
mc15_13TeV:mc15_13TeV.387179.MadGraphPythia8EvtGen_A14NNPDF23LO_TT_directTT_700_1.merge.DAOD_SUSY5.e3969_a766_a777_r6282_p2375/
mc15_13TeV:mc15_13TeV.387180.MadGraphPythia8EvtGen_A14NNPDF23LO_TT_directTT_700_50.merge.DAOD_SUSY5.e3969_a766_a777_r6282_p2375/
mc15_13TeV:mc15_13TeV.387181.MadGraphPythia8EvtGen_A14NNPDF23LO_TT_directTT_700_100.merge.DAOD_SUSY5.e3969_a766_a777_r6282_p2375/
mc15_13TeV:mc15_13TeV.387182.MadGraphPythia8EvtGen_A14NNPDF23LO_TT_directTT_700_200.merge.DAOD_SUSY5.e3969_a766_a777_r6282_p2375/
mc15_13TeV:mc15_13TeV.387183.MadGraphPythia8EvtGen_A14NNPDF23LO_TT_directTT_700_250.merge.DAOD_SUSY5.e3969_a766_a777_r6282_p2375/
mc15_13TeV:mc15_13TeV.387184.MadGraphPythia8EvtGen_A14NNPDF23LO_TT_directTT_700_300.merge.DAOD_SUSY5.e3969_a766_a777_r6282_p2375/
mc15_13TeV:mc15_13TeV.387185.MadGraphPythia8EvtGen_A14NNPDF23LO_TT_directTT_700_350.merge.DAOD_SUSY5.e3969_a766_a777_r6282_p2375/
mc15_13TeV:mc15_13TeV.387186.MadGraphPythia8EvtGen_A14NNPDF23LO_TT_directTT_700_400.merge.DAOD_SUSY5.e3969_a766_a777_r6282_p2375/
mc15_13TeV:mc15_13TeV.387187.MadGraphPythia8EvtGen_A14NNPDF23LO_TT_directTT_700_450.merge.DAOD_SUSY5.e3969_a766_a777_r6282_p2375/
mc15_13TeV:mc15_13TeV.387188.MadGraphPythia8EvtGen_A14NNPDF23LO_TT_directTT_750_1.merge.DAOD_SUSY5.e3969_a766_a777_r6282_p2375/
mc15_13TeV:mc15_13TeV.387189.MadGraphPythia8EvtGen_A14NNPDF23LO_TT_directTT_750_50.merge.DAOD_SUSY5.e3969_a766_a777_r6282_p2375/
mc15_13TeV:mc15_13TeV.387190.MadGraphPythia8EvtGen_A14NNPDF23LO_TT_directTT_750_100.merge.DAOD_SUSY5.e3969_a766_a777_r6282_p2375/
mc15_13TeV:mc15_13TeV.387191.MadGraphPythia8EvtGen_A14NNPDF23LO_TT_directTT_750_200.merge.DAOD_SUSY5.e3969_a766_a777_r6282_p2375/
mc15_13TeV:mc15_13TeV.387192.MadGraphPythia8EvtGen_A14NNPDF23LO_TT_directTT_750_250.merge.DAOD_SUSY5.e3969_a766_a777_r6282_p2375/
mc15_13TeV:mc15_13TeV.387193.MadGraphPythia8EvtGen_A14NNPDF23LO_TT_directTT_750_300.merge.DAOD_SUSY5.e3969_a766_a777_r6282_p2375/
mc15_13TeV:mc15_13TeV.387194.MadGraphPythia8EvtGen_A14NNPDF23LO_TT_directTT_750_350.merge.DAOD_SUSY5.e3969_a766_a777_r6282_p2375/
mc15_13TeV:mc15_13TeV.387195.MadGraphPythia8EvtGen_A14NNPDF23LO_TT_directTT_750_400.merge.DAOD_SUSY5.e3969_a766_a777_r6282_p2375/
mc15_13TeV:mc15_13TeV.387196.MadGraphPythia8EvtGen_A14NNPDF23LO_TT_directTT_750_450.merge.DAOD_SUSY5.e3969_a766_a777_r6282_p2375/
mc15_13TeV:mc15_13TeV.387197.MadGraphPythia8EvtGen_A14NNPDF23LO_TT_directTT_750_500.merge.DAOD_SUSY5.e3969_a766_a777_r6282_p2375/
mc15_13TeV:mc15_13TeV.387198.MadGraphPythia8EvtGen_A14NNPDF23LO_TT_directTT_800_1.merge.DAOD_SUSY5.e3969_a766_a777_r6282_p2375/
mc15_13TeV:mc15_13TeV.387199.MadGraphPythia8EvtGen_A14NNPDF23LO_TT_directTT_800_50.merge.DAOD_SUSY5.e3969_a766_a777_r6282_p2375/
mc15_13TeV:mc15_13TeV.387200.MadGraphPythia8EvtGen_A14NNPDF23LO_TT_directTT_800_100.merge.DAOD_SUSY5.e3969_a766_a777_r6282_p2375/
mc15_13TeV:mc15_13TeV.387201.MadGraphPythia8EvtGen_A14NNPDF23LO_TT_directTT_800_200.merge.DAOD_SUSY5.e3969_a766_a777_r6282_p2375/
mc15_13TeV:mc15_13TeV.387202.MadGraphPythia8EvtGen_A14NNPDF23LO_TT_directTT_800_250.merge.DAOD_SUSY5.e3969_a766_a777_r6282_p2375/
mc15_13TeV:mc15_13TeV.387203.MadGraphPythia8EvtGen_A14NNPDF23LO_TT_directTT_800_300.merge.DAOD_SUSY5.e3969_a766_a777_r6282_p2375/
mc15_13TeV:mc15_13TeV.387204.MadGraphPythia8EvtGen_A14NNPDF23LO_TT_directTT_800_350.merge.DAOD_SUSY5.e3969_a766_a777_r6282_p2375/
mc15_13TeV:mc15_13TeV.387205.MadGraphPythia8EvtGen_A14NNPDF23LO_TT_directTT_800_400.merge.DAOD_SUSY5.e3969_a766_a777_r6282_p2375/
mc15_13TeV:mc15_13TeV.387206.MadGraphPythia8EvtGen_A14NNPDF23LO_TT_directTT_800_450.merge.DAOD_SUSY5.e3969_a766_a777_r6282_p2375/
mc15_13TeV:mc15_13TeV.387207.MadGraphPythia8EvtGen_A14NNPDF23LO_TT_directTT_800_500.merge.DAOD_SUSY5.e3969_a766_a777_r6282_p2375/
mc15_13TeV:mc15_13TeV.387208.MadGraphPythia8EvtGen_A14NNPDF23LO_TT_directTT_800_550.merge.DAOD_SUSY5.e3969_a766_a777_r6282_p2375/
mc15_13TeV:mc15_13TeV.387209.MadGraphPythia8EvtGen_A14NNPDF23LO_TT_directTT_850_1.merge.DAOD_SUSY5.e3969_a766_a777_r6282_p2375/
mc15_13TeV:mc15_13TeV.387210.MadGraphPythia8EvtGen_A14NNPDF23LO_TT_directTT_850_50.merge.DAOD_SUSY5.e3969_a766_a777_r6282_p2375/
mc15_13TeV:mc15_13TeV.387211.MadGraphPythia8EvtGen_A14NNPDF23LO_TT_directTT_850_100.merge.DAOD_SUSY5.e3969_a766_a777_r6282_p2375/
mc15_13TeV:mc15_13TeV.387212.MadGraphPythia8EvtGen_A14NNPDF23LO_TT_directTT_850_200.merge.DAOD_SUSY5.e3969_a766_a777_r6282_p2375/
mc15_13TeV:mc15_13TeV.387213.MadGraphPythia8EvtGen_A14NNPDF23LO_TT_directTT_850_300.merge.DAOD_SUSY5.e3969_a766_a777_r6282_p2375/
mc15_13TeV:mc15_13TeV.387214.MadGraphPythia8EvtGen_A14NNPDF23LO_TT_directTT_850_400.merge.DAOD_SUSY5.e3969_a766_a777_r6282_p2375/
mc15_13TeV:mc15_13TeV.387215.MadGraphPythia8EvtGen_A14NNPDF23LO_TT_directTT_850_500.merge.DAOD_SUSY5.e3969_a766_a777_r6282_p2375/
mc15_13TeV:mc15_13TeV.387216.MadGraphPythia8EvtGen_A14NNPDF23LO_TT_directTT_850_600.merge.DAOD_SUSY5.e3969_a766_a777_r6282_p2375/
mc15_13TeV:mc15_13TeV.387217.MadGraphPythia8EvtGen_A14NNPDF23LO_TT_directTT_900_1.merge.DAOD_SUSY5.e3969_a766_a777_r6282_p2375/
mc15_13TeV:mc15_13TeV.387218.MadGraphPythia8EvtGen_A14NNPDF23LO_TT_directTT_900_200.merge.DAOD_SUSY5.e3969_a766_a777_r6282_p2375/
mc15_13TeV:mc15_13TeV.387219.MadGraphPythia8EvtGen_A14NNPDF23LO_TT_directTT_900_400.merge.DAOD_SUSY5.e3969_a766_a777_r6282_p2375/
mc15_13TeV:mc15_13TeV.387220.MadGraphPythia8EvtGen_A14NNPDF23LO_TT_directTT_900_600.merge.DAOD_SUSY5.e3969_a766_a777_r6282_p2375/
mc15_13TeV:mc15_13TeV.387221.MadGraphPythia8EvtGen_A14NNPDF23LO_TT_directTT_1000_1.merge.DAOD_SUSY5.e3969_a766_a777_r6282_p2375/
mc15_13TeV:mc15_13TeV.387222.MadGraphPythia8EvtGen_A14NNPDF23LO_TT_directTT_1000_200.merge.DAOD_SUSY5.e3969_a766_a777_r6282_p2375/
mc15_13TeV:mc15_13TeV.387223.MadGraphPythia8EvtGen_A14NNPDF23LO_TT_directTT_1000_400.merge.DAOD_SUSY5.e3969_a766_a777_r6282_p2375/
mc15_13TeV:mc15_13TeV.387224.MadGraphPythia8EvtGen_A14NNPDF23LO_TT_directTT_1000_600.merge.DAOD_SUSY5.e3969_a766_a777_r6282_p2375/
